[
  {
    "codigo": "0483",
    "nombre": "Sistemas Informáticos",
    "curso": "1º",
    "horas": "5"
  },
  {
    "codigo": "0484",
    "nombre": "Bases de datos",
    "curso": "1º",
    "horas": "6"
  },
  {
    "codigo": "0485",
    "nombre": "Programación",
    "curso": "1º",
    "horas": "8"
  },
  {
    "codigo": "0373",
    "nombre": "Lenguajes de marcas",
    "curso": "1º",
    "horas": "3"
  },
  {
    "codigo": "0487",
    "nombre": "Entornos de Desarrollo",
    "curso": "1º",
    "horas": "3"
  },
  {
    "codigo": "A052",
    "nombre": "Lengua extranjera profesional: Inglés I",
    "curso": "1º",
    "horas": "2"
  },
  {
    "codigo": "0617",
    "nombre": "Formación y Orientación Laboral",
    "curso": "1º",
    "horas": "3"
  }
]
